french_marker,en,french_marker_trust
"comme
comme
comme
comme
comme
comme","If the House agrees, I shall do <b>as</b> Mr Evans has suggested.","comme	6	0.8630166666666668
"
"si
si
si
si
si","That is precisely the time when you may, <b>if</b> you wish, raise this question, i.e. on Thursday prior to the start of the presentation of the report.","si	5	0.8606200000000002
"
"C'est en effet
en effet
en effet
en effet
en effet
.
en effet","<b>Indeed</b>, it is quite in keeping with the positions this House has always adopted.","en effet	5	0.87904
.	1	0.8889
C'est en effet	1	0.7273
"
".
.
.
.
.
.
.","Now, however, he is to go before the courts once more <b>because</b> the public prosecutor is appealing.",".	7	0.8587714285714287
"
".
d'ailleurs
.
.
.
.","We know, and we have stated as much in very many resolutions <b>indeed</b>, including specifically during the last plenary part-session of last year, that this is not solely a legal case and that it is wrong for Alexander Nikitin to be accused of criminal activity and treason because of our involvement as the beneficiaries of his findings.",".	5	0.8356200000000001
d'ailleurs	1	1.0
"
".
qui
.
Ces résultats forment la1 base des1 programmes européens de1 protection de2 la2 mer de3 Barents et1 c'est pourquoi je vous1 prie d'examiner un projet de4 lettre vous2 dépeignant les faits essentiels de5 cette affaire et2 de6 communiquer à la3 Russie la4 position qui découle des2 décisions du Parlement.
.
.
.
.","These findings form the basis of the European programmes to protect the Barents Sea, and that is why I would ask you to examine a draft letter setting out the most important facts and to make Parliament's position, <b>as</b> expressed in the resolutions which it has adopted, clear as far as Russia is concerned.",".	6	0.8806833333333334
qui	1	0.7273
Ces résultats forment la1 base des1 programmes européens de1 protection de2 la2 mer de3 Barents et1 c'est pourquoi je vous1 prie d'examiner un projet de4 lettre vous2 dépeignant les faits essentiels de5 cette affaire et2 de6 communiquer à la3 Russie la4 position qui découle des2 décisions du Parlement.	1	0.8333
"
"également
également
également
également
également
.
également","I shall <b>also</b> refer the matter to the College of Quaestors, and I am certain that they will be keen to ensure that we comply with the regulations we ourselves vote on.","également	6	0.8537500000000001
.	1	0.8889
"
"si
si","Madam President, I should like to know <b>if</b> there will be a clear message going out from Parliament this week about our discontent over today's decision refusing to renew the arms embargo on Indonesia, considering that the vast majority in this Parliament have endorsed the arms embargo in Indonesia in the past?","si	2	0.8182
"
"en ce sens
en ce sens
.
donné
.","So Parliament should send a message, <b>since</b> that is the wish of the vast majority.",".	2	0.94445
en ce sens	2	0.8182
donné	1	0.7778
"
"donc
donc
donc
Il s'est donc écoulé suffisamment de temps pour1 que1 la Commission prépare son programme et1 pour2 que2 nous puissions en prendre connaissance et2 l'expliquer aux citoyens.
donc
donc
donc
suffisamment",There has <b>therefore</b> been enough time for the Commission to prepare its programme and for us to become familiar with it and explain it to our citizens.,"donc	6	0.8352333333333334
suffisamment	1	1.0
Il s'est donc écoulé suffisamment de temps pour1 que1 la Commission prépare son programme et1 pour2 que2 nous puissions en prendre connaissance et2 l'expliquer aux citoyens.	1	0.8333
"
".
.
.
.
.
.
.","Given that the Commission is represented by Vice-President de Palacio, I believe that, before voting, it would help <b>if</b> the Commission could let us know how ready it is to present this programme, as agreed. Alternatively, Parliament is not ready to examine this programme, as some appear to be suggesting.",".	7	0.8587714285714287
"
"car
car","In my opinion, this second hypothesis would imply the failure of Parliament in its duty as a Parliament, as well as introducing an original thesis, an unknown method which consists of making political groups aware, in writing, of a speech concerning the Commission' s programme a week earlier - and not a day earlier, as had been agreed - bearing in mind that the legislative programme will be discussed in February, so we could forego the debate, <b>since</b> on the next day our citizens will hear about it in the press and on the Internet and Parliament will no longer have to worry about it.","car	2	0.8182
"
"et2
et2","My Group believes that since a parliament is meant to listen, debate and reflect, there can be no justification whatsoever for this delay <b>and</b> we believe that, if the Commission is ready to do so, we still have time to re-establish the original agreement between Parliament and the Commission and proceed in a manner which fulfils our duty to our fellow citizens.","et2	2	0.8182
"
"et
et
et
et
et
et,
et
et","Therefore, the proposal of the Group of the Party of European Socialists, and which you have mentioned, is that the Prodi Commission present its legislative programme on Wednesday, including its proposed administrative reform, because, otherwise, we could find ourselves in a paradoxical situation: on the pretext that there is no text, on the one hand, the President of the Commission would be denied his right to speak in this Parliament <b>and</b>, on the other hand, there would be a debate on a reform when Parliament had no prior knowledge of the texts on which it is based.","et	7	0.8528142857142856
et,	1	0.875
"
"d'2autre part2
d'2autre part2","Therefore, the proposal of the Group of the Party of European Socialists, and which you have mentioned, is that the Prodi Commission present its legislative programme on Wednesday, including its proposed administrative reform, because, otherwise, we could find ourselves in a paradoxical situation: on the pretext that there is no text, on the one hand, the President of the Commission would be denied his right to speak in this Parliament and, <b>on the other hand</b>, there would be a debate on a reform when Parliament had no prior knowledge of the texts on which it is based.","d'2autre part2	2	0.8182
"
"dès lors
.","<b>Therefore</b>, Madam President, I would ask you to request that the Commission express its opinion on this issue and that we then proceed to the vote.","dès lors	1	0.9091
.	1	0.7273
"
"et
et","Therefore, Madam President, I would ask you to request that the Commission express its opinion on this issue <b>and</b> that we then proceed to the vote.","et	2	0.8182
"
"donc
donc
donc
donc
donc","<b>Therefore</b>, Madam President, I would like to repeat that the Commission has debated the action plan for the next five years and, when Parliament decides, - this week if that is the decision - we are prepared to come and explain the programme for the next five years and, next month, the programme for 2000, which is what we fully agreed upon.","donc	5	0.8606200000000002
"
"quand
quand","Therefore, Madam President, I would like to repeat that the Commission has debated the action plan for the next five years and, <b>when</b> Parliament decides, - this week if that is the decision - we are prepared to come and explain the programme for the next five years and, next month, the programme for 2000, which is what we fully agreed upon.","quand	2	0.8182
"
"et1
et1
et1
et1
et1
et1","Therefore, Madam President, I would like to repeat that the Commission has debated the action plan for the next five years <b>and</b>, when Parliament decides, - this week if that is the decision - we are prepared to come and explain the programme for the next five years and, next month, the programme for 2000, which is what we fully agreed upon.","et1	6	0.8630166666666668
"
"car
car
car
.
car","Madam President, I can hear a ripple of laughter from the Socialists. I was told that large sections of the Socialist Group were also keen to have this item taken off the agenda, <b>because</b> at the vote in the Conference of Presidents no vote was received from the working group of Members of the Socialist Group responsible for this matter.","car	4	0.881325
.	1	0.7778
"
".
.
.
Des décisions existent qui s'opposent à une telle taxe.
.
.
.
.",Decisions have <b>also</b> been adopted against a tax of this kind.,".	7	0.8587714285714286
Des décisions existent qui s'opposent à une telle taxe.	1	0.8333
"
".
pour1
pour1
.
.
.","I therefore repeat the proposal that this oral question to the Commission and the Council should be retained <b>so that</b> we can find out, once and for all, the positions of these two bodies regarding the proposal which is relatively modest but which would give a clear message to public opinion, particularly after the tide of feeling generated by the failure of the Seattle Conference.",".	4	0.81725
pour1	2	0.95455
"
"si
si","Indeed, <b>if</b> we add the two Members who have declared themselves, then the result of the vote would be ....","si	2	0.8182
"
".
même
.
.
.
.
.
.
.
.
,
.
.
.
.
.
.
.
.
.
.","We discussed that matter and we were unanimous, with the exception of the PPE and ELDR Groups. <b>As</b> my fellow chairmen will recall, I even mentioned that it was not a matter of knowing whether one was for or against the Tobin tax, but of whether one dared to hear what the Commission and the Council thought of it.",".	19	0.8637578947368422
,	1	0.8
même	1	0.8
"
"également
.
également
également
également
également
également
également
également
également
également
également
également
également",This is very costly and it <b>also</b> causes very great social problems.,"également	13	0.8156153846153846
.	1	0.8
"
"et2
et2
et2
et2
et2
et
et2
et
Et2
et3
et2
et2
et2
et2
et
et2
et2
et2","We understand that it is important that the two institutions - Parliament and Commission - cooperate and work together <b>and</b> that the current cooperation with the Committee on Regional Policy, and in particular the transport group, is magnificent.","et2	13	0.8487384615384614
et	3	0.8000000000000002
et3	1	0.8333
Et2	1	0.7778
"
"dès lors
.
en ce sens
.
dès lors
.
dès lors
dès lors
.
.
.
.
.
Le1 Parlement devrait dès lors envoyer un message en ce sens, étant donné qu'une grande majorité des députés le2 souhaite.
lors
,
Le1
Le1
.
.
dès lors
lors
.
.
.","<b>So</b> Parliament should send a message, since that is the wish of the vast majority.",".	13	0.8683769230769232
dès lors	5	0.8284799999999999
Le1	2	0.8264
lors	2	0.8166500000000001
en ce sens	1	0.7273
,	1	0.8
Le1 Parlement devrait dès lors envoyer un message en ce sens, étant donné qu'une grande majorité des députés le2 souhaite.	1	0.8333
"
"afin qu
afin qu
afin
afin qu'en
Afin qu'
afin qu
afin qu'
afin qu'
afin qu'
afin qu'
afin qu'
afin qu'en
afin qu'
afin qu'
afin qu'
.
afin qu'en
afin qu'
afin qu'en
afin qu'en","In this context, I should like to make a request and ask the Commissioner responsible, who is with us here today, to table an appropriate text as soon as possible with a view to continuing to make it safer for traffic to transit tunnels in the future, <b>so that</b> we in Europe do not have to experience any more such disasters on this scale.","afin qu'	9	0.8787888888888888
afin qu'en	5	0.8394400000000001
afin qu	3	0.8111
.	1	0.8
Afin qu'	1	1.0
afin	1	0.7273
"
"car
car
car
car
car
car
car ce3
car
car
car
car
car
car
car
car
car ce3
car
car
Car","With regard to enforcement, proper agreements must also be concluded with the Eastern European countries <b>because</b> they will not enter into treaties which deal with this matter until 1 July 2001, that is to say in eighteen months' time.","car	16	0.8652937499999999
car ce3	2	0.8
Car	1	0.8
"
"Avant
Avant
Avant
Avant
Avant
Avant
Avant
Avant
Avant
Avant de1
Avant
Avant
Avant de1
Avant
Avant
Avant
Avant de
Avant
Avant
Avant
Avant de1","<b>Before</b> concluding, I should like to tell Mr Savary that we are going to have a special debate tomorrow on the consequences of the storms which have struck France, Austria and Germany, in particular, in the last few weeks, and at the same time we shall once again be discussing, together with my fellow Commissioner, Mrs de Palacio, what lessons we might draw in the matter of the oil spillage which has also affected the coasts of France.","Avant	17	0.8457705882352943
Avant de1	3	0.9444333333333333
Avant de	1	0.8
"
"Mais
.
.
Mais
Mais
.
Mais
Mais
Mais
.
Mais
Mais
.","I would like to point out, <b>however</b>, that this starting point indicates to us the challenges which face us: maintaining a population in rural areas, given the changes taking place in all types of economic activity owing to agriculture' s increasing lack of importance amongst the various sources of income for rural society.","Mais	8	0.8337125
.	5	0.79556
"
"lorsqu'
lorsqu
lorsqu'
lorsqu'
lorsqu'
lorsqu'
lorsqu
lorsqu'
lorsqu
lorsqu'
lorsqu'
lorsqu
Lorsqu'
lorsqu'
lorsqu'
lorsqu'
lorsqu
lorsqu'
lorsqu'
lorsqu'
lorsqu'","The Commission report generally relativises this observation, particularly <b>when</b> it refers to the social and economic situation of some regions of the Union in which I have a special interest, by which I mean the French overseas departments and, more generally, the most remote regions.","lorsqu'	15	0.88224
lorsqu	5	0.8400000000000001
Lorsqu'	1	0.7778
"
"Cela étant
Cela étant
Cela étant
Cela étant
.
.
.
.
Cela étant
Cela étant
.
Cela étant
Cela étant
.
Cela étant
Cela étant
.
.
Cela étant","As an islander, <b>however</b>, I would like to express my dissatisfaction at the lack of recognition of island development.","Cela étant	11	0.8826454545454545
.	8	0.8159124999999999
"
"parce que
parce
parce que
parce que
parce que
parce que
parce que
parce que
parce que
parce que
parce que
parce que
parce que
parce que
parce que
parce que
parce que
parce que
parce que","He has just been preaching to the Group of the Party of European Socialists <b>because</b> they went back on a decision taken in a perfectly clear manner at the Conference of Presidents, and now he is doing just the same.","parce que	18	0.8509666666666669
parce	1	0.7273
"
